{
    "Adjective": {
        "abandoned": {
            "tags": [
                "Setting", 
                "Quest", 
                "Hero", 
                "Antagonist", 
                "Ally", 
                "Obstacle", 
                "Negative"
            ]
        }, 
        "aggressive": {
            "tags": [
                "Setting", 
                "Quest", 
                "Hero", 
                "Antagonist", 
                "Ally", 
                "Obstacle", 
                "Negative"
            ]
        }, 
        "agile": {
            "tags": [
                "Quest", 
                "Hero", 
                "Antagonist", 
                "Ally", 
                "Obstacle", 
                "Positive"
            ]
        }, 
        "ancient": {
            "tags": [
                "Setting", 
                "Quest", 
                "Hero", 
                "Antagonist", 
                "Ally", 
                "Obstacle"
            ]
        }, 
        "animalistic": {
            "tags": [
                "Quest", 
                "Hero", 
                "Antagonist", 
                "Ally", 
                "Obstacle"
            ]
        }, 
        "apocalyptic": {
            "tags": [
                "Setting", 
                "Quest", 
                "Hero", 
                "Antagonist", 
                "Ally", 
                "Obstacle"
            ]
        }, 
        "arcane": {
            "tags": [
                "Setting", 
                "Quest", 
                "Hero", 
                "Antagonist", 
                "Ally", 
                "Obstacle"
            ]
        }, 
        "bookish": {
            "tags": [
                "Hero", 
                "Antagonist", 
                "Ally", 
                "Obstacle"
            ]
        }, 
        "brave": {
            "tags": [
                "Setting", 
                "Quest", 
                "Hero", 
                "Antagonist", 
                "Ally", 
                "Obstacle", 
                "Positive"
            ]
        }, 
        "brittle": {
            "tags": [
                "Quest", 
                "Hero", 
                "Antagonist", 
                "Ally", 
                "Obstacle", 
                "Negative"
            ]
        }, 
        "broken": {
            "tags": [
                "Setting", 
                "Quest", 
                "Hero", 
                "Antagonist", 
                "Ally", 
                "Obstacle", 
                "Negative"
            ]
        }, 
        "calculating": {
            "tags": [
                "Quest", 
                "Hero", 
                "Antagonist", 
                "Ally", 
                "Obstacle", 
                "Negative", 
                "Positive"
            ]
        }, 
        "charming": {
            "tags": [
                "Setting", 
                "Quest", 
                "Hero", 
                "Antagonist", 
                "Ally", 
                "Obstacle", 
                "Positive"
            ]
        }, 
        "chosen": {
            "tags": [
                "Setting", 
                "Quest", 
                "Hero", 
                "Antagonist"
            ]
        }, 
        "city": {
            "tags": [
                "Hero", 
                "Antagonist", 
                "Ally", 
                "Obstacle"
            ]
        }, 
        "close-knit": {
            "tags": [
                "Setting"
            ]
        }, 
        "collapsed": {
            "tags": [
                "Setting", 
                "Quest", 
                "Hero", 
                "Antagonist", 
                "Ally", 
                "Obstacle", 
                "Negative"
            ]
        }, 
        "comforting": {
            "tags": [
                "Setting", 
                "Hero", 
                "Antagonist", 
                "Ally", 
                "Obstacle", 
                "Positive"
            ]
        }, 
        "common": {
            "tags": [
                "Setting", 
                "Hero", 
                "Antagonist", 
                "Ally", 
                "Obstacle"
            ]
        }, 
        "confident": {
            "tags": [
                "Setting", 
                "Quest", 
                "Hero", 
                "Antagonist", 
                "Ally", 
                "Obstacle", 
                "Positive"
            ]
        }, 
        "constructed": {
            "tags": [
                "Setting", 
                "Quest", 
                "Hero", 
                "Antagonist", 
                "Ally", 
                "Obstacle"
            ]
        }, 
        "controlled": {
            "tags": [
                "Setting", 
                "Quest", 
                "Hero", 
                "Antagonist", 
                "Ally", 
                "Obstacle"
            ]
        }, 
        "corrupted": {
            "tags": [
                "Setting", 
                "Quest", 
                "Hero", 
                "Antagonist", 
                "Ally", 
                "Obstacle", 
                "Negative"
            ]
        }, 
        "created": {
            "tags": [
                "Setting", 
                "Quest", 
                "Hero", 
                "Antagonist", 
                "Ally", 
                "Obstacle"
            ]
        }, 
        "damaged": {
            "tags": [
                "Setting", 
                "Quest", 
                "Hero", 
                "Antagonist", 
                "Ally", 
                "Obstacle", 
                "Negative"
            ]
        }, 
        "dark": {
            "tags": [
                "Setting", 
                "Quest", 
                "Hero", 
                "Antagonist", 
                "Ally", 
                "Obstacle"
            ]
        }, 
        "dead": {
            "tags": [
                "Setting", 
                "Quest", 
                "Hero", 
                "Antagonist", 
                "Ally", 
                "Obstacle"
            ]
        }, 
        "defeated": {
            "tags": [
                "Setting", 
                "Quest", 
                "Hero", 
                "Antagonist", 
                "Ally", 
                "Obstacle", 
                "Negative"
            ]
        }, 
        "demonic": {
            "tags": [
                "Setting", 
                "Quest", 
                "Hero", 
                "Antagonist", 
                "Ally", 
                "Obstacle"
            ]
        }, 
        "desperate": {
            "tags": [
                "Setting", 
                "Quest", 
                "Hero", 
                "Antagonist", 
                "Ally", 
                "Obstacle", 
                "Negative"
            ]
        }, 
        "destroyed": {
            "tags": [
                "Setting", 
                "Quest", 
                "Hero", 
                "Antagonist", 
                "Ally", 
                "Obstacle", 
                "Negative"
            ]
        }, 
        "diplomatic": {
            "tags": [
                "Quest", 
                "Hero", 
                "Antagonist", 
                "Ally", 
                "Obstacle", 
                "Positive"
            ]
        }, 
        "disheveled": {
            "tags": [
                "Quest", 
                "Hero", 
                "Antagonist", 
                "Ally", 
                "Obstacle", 
                "Negative"
            ]
        }, 
        "dishonest": {
            "tags": [
                "Quest", 
                "Hero", 
                "Antagonist", 
                "Ally", 
                "Obstacle", 
                "Negative"
            ]
        }, 
        "divine": {
            "tags": [
                "Setting", 
                "Quest", 
                "Hero", 
                "Antagonist", 
                "Ally", 
                "Obstacle", 
                "Positive"
            ]
        }, 
        "dormant": {
            "tags": [
                "Setting", 
                "Quest", 
                "Hero", 
                "Antagonist", 
                "Ally", 
                "Obstacle"
            ]
        }, 
        "dramatic": {
            "tags": [
                "Quest", 
                "Hero", 
                "Antagonist", 
                "Ally", 
                "Obstacle"
            ]
        }, 
        "elemental": {
            "tags": [
                "Quest", 
                "Hero", 
                "Antagonist", 
                "Ally", 
                "Obstacle"
            ]
        }, 
        "empathic": {
            "tags": [
                "Quest", 
                "Hero", 
                "Antagonist", 
                "Ally", 
                "Obstacle", 
                "Positive"
            ]
        }, 
        "enchanted": {
            "tags": [
                "Setting", 
                "Quest", 
                "Hero", 
                "Antagonist", 
                "Ally", 
                "Obstacle", 
                "Positive"
            ]
        }, 
        "ethereal": {
            "tags": [
                "Setting", 
                "Quest", 
                "Hero", 
                "Antagonist", 
                "Ally", 
                "Obstacle"
            ]
        }, 
        "evasive": {
            "tags": [
                "Setting", 
                "Quest", 
                "Hero", 
                "Antagonist", 
                "Ally", 
                "Obstacle", 
                "Negative", 
                "Positive"
            ]
        }, 
        "family": {
            "tags": [
                "Hero", 
                "Antagonist", 
                "Ally", 
                "Obstacle"
            ]
        }, 
        "fantastic": {
            "tags": [
                "Setting", 
                "Quest", 
                "Hero", 
                "Antagonist", 
                "Ally", 
                "Obstacle", 
                "Positive"
            ]
        }, 
        "fantasy": {
            "tags": [
                "Setting", 
                "Quest", 
                "Hero", 
                "Antagonist", 
                "Ally", 
                "Obstacle"
            ]
        }, 
        "fashionable": {
            "tags": [
                "Setting", 
                "Quest", 
                "Hero", 
                "Antagonist", 
                "Ally", 
                "Obstacle", 
                "Positive"
            ]
        }, 
        "forceful": {
            "tags": [
                "Quest", 
                "Hero", 
                "Antagonist", 
                "Ally", 
                "Obstacle", 
                "Negative"
            ]
        }, 
        "forgotten": {
            "tags": [
                "Setting", 
                "Quest", 
                "Hero", 
                "Antagonist", 
                "Ally", 
                "Obstacle", 
                "Negative"
            ]
        }, 
        "fractured": {
            "tags": [
                "Setting", 
                "Quest", 
                "Hero", 
                "Antagonist", 
                "Ally", 
                "Obstacle", 
                "Negative"
            ]
        }, 
        "fragile": {
            "tags": [
                "Setting", 
                "Quest", 
                "Hero", 
                "Antagonist", 
                "Ally", 
                "Obstacle", 
                "Negative"
            ]
        }, 
        "friendly": {
            "tags": [
                "Setting", 
                "Quest", 
                "Hero", 
                "Antagonist", 
                "Ally", 
                "Obstacle", 
                "Positive"
            ]
        }, 
        "gaudy": {
            "tags": [
                "Setting", 
                "Quest", 
                "Hero", 
                "Antagonist", 
                "Ally", 
                "Obstacle"
            ]
        }, 
        "glass": {
            "tags": [
                "Setting", 
                "Quest", 
                "Hero", 
                "Antagonist", 
                "Ally", 
                "Obstacle"
            ]
        }, 
        "goofy": {
            "tags": [
                "Setting", 
                "Hero", 
                "Antagonist", 
                "Ally", 
                "Obstacle"
            ]
        }, 
        "greedy": {
            "tags": [
                "Setting", 
                "Quest", 
                "Hero", 
                "Antagonist", 
                "Ally", 
                "Obstacle", 
                "Negative"
            ]
        }, 
        "green": {
            "tags": [
                "Setting", 
                "Quest", 
                "Hero", 
                "Antagonist", 
                "Ally", 
                "Obstacle"
            ]
        }, 
        "holy": {
            "tags": [
                "Setting", 
                "Quest", 
                "Hero", 
                "Antagonist", 
                "Ally", 
                "Obstacle", 
                "Positive"
            ]
        }, 
        "hostile": {
            "tags": [
                "Setting", 
                "Quest", 
                "Hero", 
                "Antagonist", 
                "Ally", 
                "Obstacle", 
                "Negative"
            ]
        }, 
        "huge": {
            "tags": [
                "Setting", 
                "Quest", 
                "Hero", 
                "Antagonist", 
                "Ally", 
                "Obstacle"
            ]
        }, 
        "incomprehensible": {
            "tags": [
                "Setting", 
                "Quest", 
                "Hero", 
                "Antagonist", 
                "Ally", 
                "Obstacle"
            ]
        }, 
        "inscrutable": {
            "tags": [
                "Setting", 
                "Quest", 
                "Hero", 
                "Antagonist", 
                "Ally", 
                "Obstacle"
            ]
        }, 
        "intergalactic": {
            "tags": [
                "Setting", 
                "Quest", 
                "Hero", 
                "Antagonist", 
                "Ally", 
                "Obstacle"
            ]
        }, 
        "intuitive": {
            "tags": [
                "Quest", 
                "Hero", 
                "Antagonist", 
                "Ally", 
                "Obstacle", 
                "Positive"
            ]
        }, 
        "jovial": {
            "tags": [
                "Setting", 
                "Hero", 
                "Antagonist", 
                "Ally", 
                "Obstacle", 
                "Positive"
            ]
        }, 
        "keen": {
            "tags": [
                "Quest", 
                "Hero", 
                "Antagonist", 
                "Ally", 
                "Obstacle", 
                "Positive"
            ]
        }, 
        "lazy": {
            "tags": [
                "Quest", 
                "Hero", 
                "Antagonist", 
                "Ally", 
                "Obstacle", 
                "Negative"
            ]
        }, 
        "magic": {
            "tags": [
                "Setting", 
                "Quest", 
                "Hero", 
                "Antagonist", 
                "Ally", 
                "Obstacle", 
                "Positive"
            ]
        }, 
        "naive": {
            "tags": [
                "Quest", 
                "Hero", 
                "Antagonist", 
                "Ally", 
                "Obstacle", 
                "Negative"
            ]
        }, 
        "official": {
            "tags": [
                "Setting", 
                "Quest", 
                "Hero", 
                "Antagonist", 
                "Ally", 
                "Obstacle"
            ]
        }, 
        "old": {
            "tags": [
                "Setting", 
                "Quest", 
                "Hero", 
                "Antagonist", 
                "Ally", 
                "Obstacle"
            ]
        }, 
        "outdated": {
            "tags": [
                "Setting", 
                "Quest", 
                "Hero", 
                "Antagonist", 
                "Ally", 
                "Obstacle"
            ]
        }, 
        "overzealous": {
            "tags": [
                "Setting", 
                "Quest", 
                "Hero", 
                "Antagonist", 
                "Ally", 
                "Obstacle", 
                "Negative"
            ]
        }, 
        "paranoid": {
            "tags": [
                "Setting", 
                "Quest", 
                "Hero", 
                "Antagonist", 
                "Ally", 
                "Obstacle", 
                "Negative"
            ]
        }, 
        "peaceful": {
            "tags": [
                "Setting", 
                "Hero", 
                "Antagonist", 
                "Ally", 
                "Obstacle", 
                "Positive"
            ]
        }, 
        "persuasive": {
            "tags": [
                "Quest", 
                "Hero", 
                "Antagonist", 
                "Ally", 
                "Obstacle", 
                "Positive"
            ]
        }, 
        "poisoned": {
            "tags": [
                "Setting", 
                "Quest", 
                "Hero", 
                "Antagonist", 
                "Ally", 
                "Obstacle", 
                "Negative"
            ]
        }, 
        "poisonous": {
            "tags": [
                "Setting", 
                "Quest", 
                "Hero", 
                "Antagonist", 
                "Ally", 
                "Obstacle", 
                "Negative"
            ]
        }, 
        "pristine": {
            "tags": [
                "Setting", 
                "Quest", 
                "Hero", 
                "Antagonist", 
                "Ally", 
                "Obstacle", 
                "Positive"
            ]
        }, 
        "prophetic": {
            "tags": [
                "Quest", 
                "Hero", 
                "Antagonist", 
                "Ally", 
                "Obstacle"
            ]
        }, 
        "protective": {
            "tags": [
                "Hero", 
                "Antagonist", 
                "Ally", 
                "Obstacle", 
                "Positive"
            ]
        }, 
        "proud": {
            "tags": [
                "Setting", 
                "Quest", 
                "Hero", 
                "Antagonist", 
                "Ally", 
                "Obstacle", 
                "Positive"
            ]
        }, 
        "quiet": {
            "tags": [
                "Setting", 
                "Quest", 
                "Hero", 
                "Antagonist", 
                "Ally", 
                "Obstacle"
            ]
        }, 
        "rash": {
            "tags": [
                "Hero", 
                "Antagonist", 
                "Ally", 
                "Obstacle", 
                "Negative"
            ]
        }, 
        "refined": {
            "tags": [
                "Setting", 
                "Quest", 
                "Hero", 
                "Antagonist", 
                "Ally", 
                "Obstacle", 
                "Positive"
            ]
        }, 
        "relentless": {
            "tags": [
                "Quest", 
                "Hero", 
                "Antagonist", 
                "Ally", 
                "Obstacle", 
                "Negative", 
                "Positive"
            ]
        }, 
        "reluctant": {
            "tags": [
                "Hero", 
                "Antagonist", 
                "Ally", 
                "Obstacle"
            ]
        }, 
        "romantic": {
            "tags": [
                "Setting", 
                "Quest", 
                "Hero", 
                "Antagonist", 
                "Ally", 
                "Obstacle", 
                "Positive"
            ]
        }, 
        "royal": {
            "tags": [
                "Setting", 
                "Quest", 
                "Hero", 
                "Antagonist", 
                "Ally", 
                "Obstacle"
            ]
        }, 
        "ruthless": {
            "tags": [
                "Quest", 
                "Hero", 
                "Antagonist", 
                "Ally", 
                "Obstacle", 
                "Negative"
            ]
        }, 
        "savvy": {
            "tags": [
                "Quest", 
                "Hero", 
                "Antagonist", 
                "Ally", 
                "Obstacle", 
                "Positive"
            ]
        }, 
        "scared": {
            "tags": [
                "Setting", 
                "Quest", 
                "Hero", 
                "Antagonist", 
                "Ally", 
                "Obstacle"
            ]
        }, 
        "slow": {
            "tags": [
                "Setting", 
                "Quest", 
                "Hero", 
                "Antagonist", 
                "Ally", 
                "Obstacle"
            ]
        }, 
        "sly": {
            "tags": [
                "Quest", 
                "Hero", 
                "Antagonist", 
                "Ally", 
                "Obstacle", 
                "Positive"
            ]
        }, 
        "soft": {
            "tags": [
                "Setting", 
                "Hero", 
                "Antagonist", 
                "Ally", 
                "Obstacle"
            ]
        }, 
        "subtle": {
            "tags": [
                "Hero", 
                "Antagonist", 
                "Ally", 
                "Obstacle"
            ]
        }, 
        "surreal": {
            "tags": [
                "Setting", 
                "Hero", 
                "Antagonist", 
                "Ally", 
                "Obstacle"
            ]
        }, 
        "temperamental": {
            "tags": [
                "Setting", 
                "Quest", 
                "Hero", 
                "Antagonist", 
                "Ally", 
                "Obstacle", 
                "Negative"
            ]
        }, 
        "terrifying": {
            "tags": [
                "Setting", 
                "Quest", 
                "Hero", 
                "Antagonist", 
                "Ally", 
                "Obstacle"
            ]
        }, 
        "threatened": {
            "tags": [
                "Setting", 
                "Quest", 
                "Hero", 
                "Antagonist", 
                "Ally", 
                "Obstacle"
            ]
        }, 
        "undead": {
            "tags": [
                "Setting", 
                "Quest", 
                "Hero", 
                "Antagonist", 
                "Ally", 
                "Obstacle"
            ]
        }, 
        "undying": {
            "tags": [
                "Setting", 
                "Quest", 
                "Hero", 
                "Antagonist", 
                "Ally", 
                "Obstacle"
            ]
        }, 
        "unprotected": {
            "tags": [
                "Setting", 
                "Quest", 
                "Hero", 
                "Antagonist", 
                "Ally", 
                "Obstacle", 
                "Negative"
            ]
        }, 
        "unstable": {
            "tags": [
                "Setting", 
                "Quest", 
                "Hero", 
                "Antagonist", 
                "Ally", 
                "Obstacle", 
                "Negative"
            ]
        }, 
        "unyielding": {
            "tags": [
                "Setting", 
                "Quest", 
                "Hero", 
                "Antagonist", 
                "Ally", 
                "Obstacle", 
                "Positive"
            ]
        }, 
        "vengeful": {
            "tags": [
                "Setting", 
                "Quest", 
                "Hero", 
                "Antagonist", 
                "Ally", 
                "Obstacle", 
                "Negative"
            ]
        }, 
        "volatile": {
            "tags": [
                "Setting", 
                "Quest", 
                "Hero", 
                "Antagonist", 
                "Ally", 
                "Obstacle", 
                "Negative"
            ]
        }, 
        "whimsical": {
            "tags": [
                "Setting", 
                "Quest", 
                "Positive"
            ]
        }, 
        "witty": {
            "tags": [
                "Hero", 
                "Antagonist", 
                "Ally", 
                "Obstacle", 
                "Positive"
            ]
        }
    }, 
    "Name": {
        "Ada": {
            "tags": [
                "Setting", 
                "Quest", 
                "Hero", 
                "Antagonist", 
                "Ally", 
                "Obstacle"
            ]
        }, 
        "Adam": {
            "tags": [
                "Setting", 
                "Quest", 
                "Hero", 
                "Antagonist", 
                "Ally", 
                "Obstacle"
            ]
        }, 
        "Antwan": {
            "tags": [
                "Setting", 
                "Quest", 
                "Hero", 
                "Antagonist", 
                "Ally", 
                "Obstacle"
            ]
        }, 
        "Aundrea": {
            "tags": [
                "Setting", 
                "Quest", 
                "Hero", 
                "Antagonist", 
                "Ally", 
                "Obstacle"
            ]
        }, 
        "Bart": {
            "tags": [
                "Setting", 
                "Quest", 
                "Hero", 
                "Antagonist", 
                "Ally", 
                "Obstacle"
            ]
        }, 
        "Bee": {
            "tags": [
                "Setting", 
                "Quest", 
                "Hero", 
                "Antagonist", 
                "Ally", 
                "Obstacle"
            ]
        }, 
        "Brianne": {
            "tags": [
                "Setting", 
                "Quest", 
                "Hero", 
                "Antagonist", 
                "Ally", 
                "Obstacle"
            ]
        }, 
        "Callie": {
            "tags": [
                "Setting", 
                "Quest", 
                "Hero", 
                "Antagonist", 
                "Ally", 
                "Obstacle"
            ]
        }, 
        "Catherine": {
            "tags": [
                "Setting", 
                "Quest", 
                "Hero", 
                "Antagonist", 
                "Ally", 
                "Obstacle"
            ]
        }, 
        "Cierra": {
            "tags": [
                "Setting", 
                "Quest", 
                "Hero", 
                "Antagonist", 
                "Ally", 
                "Obstacle"
            ]
        }, 
        "Cillian": {
            "tags": [
                "Setting", 
                "Quest", 
                "Hero", 
                "Antagonist", 
                "Ally", 
                "Obstacle"
            ]
        }, 
        "Cole": {
            "tags": [
                "Setting", 
                "Quest", 
                "Hero", 
                "Antagonist", 
                "Ally", 
                "Obstacle"
            ]
        }, 
        "Danika": {
            "tags": [
                "Setting", 
                "Quest", 
                "Hero", 
                "Antagonist", 
                "Ally", 
                "Obstacle"
            ]
        }, 
        "Deb": {
            "tags": [
                "Hero", 
                "Antagonist", 
                "Ally", 
                "Obstacle"
            ]
        }, 
        "Denae": {
            "tags": [
                "Setting", 
                "Quest", 
                "Hero", 
                "Antagonist", 
                "Ally", 
                "Obstacle"
            ]
        }, 
        "Dobby": {
            "tags": [
                "Setting", 
                "Hero", 
                "Ally", 
                "Obstacle"
            ]
        }, 
        "Dorine": {
            "tags": [
                "Setting", 
                "Quest", 
                "Hero", 
                "Antagonist", 
                "Ally", 
                "Obstacle"
            ]
        }, 
        "Drew": {
            "tags": [
                "Setting", 
                "Quest", 
                "Hero", 
                "Antagonist", 
                "Ally", 
                "Obstacle"
            ]
        }, 
        "Ed": {
            "tags": [
                "Setting", 
                "Hero", 
                "Antagonist", 
                "Ally", 
                "Obstacle"
            ]
        }, 
        "Edmund": {
            "tags": [
                "Setting", 
                "Quest", 
                "Hero", 
                "Antagonist", 
                "Ally", 
                "Obstacle"
            ]
        }, 
        "Emily": {
            "tags": [
                "Setting", 
                "Quest", 
                "Hero", 
                "Antagonist", 
                "Ally", 
                "Obstacle"
            ]
        }, 
        "Fern": {
            "tags": [
                "Setting", 
                "Quest", 
                "Hero", 
                "Antagonist", 
                "Ally", 
                "Obstacle"
            ]
        }, 
        "Frank": {
            "tags": [
                "Setting", 
                "Quest", 
                "Hero", 
                "Antagonist", 
                "Ally", 
                "Obstacle"
            ]
        }, 
        "Gary": {
            "tags": [
                "Setting", 
                "Quest", 
                "Hero", 
                "Antagonist", 
                "Ally", 
                "Obstacle"
            ]
        }, 
        "Gretta": {
            "tags": [
                "Setting", 
                "Quest", 
                "Hero", 
                "Antagonist", 
                "Ally", 
                "Obstacle"
            ]
        }, 
        "Grover": {
            "tags": [
                "Setting", 
                "Quest", 
                "Hero", 
                "Antagonist", 
                "Ally", 
                "Obstacle"
            ]
        }, 
        "Gwyn": {
            "tags": [
                "Setting", 
                "Quest", 
                "Hero", 
                "Antagonist", 
                "Ally", 
                "Obstacle"
            ]
        }, 
        "Harriet": {
            "tags": [
                "Setting", 
                "Quest", 
                "Hero", 
                "Antagonist", 
                "Ally", 
                "Obstacle"
            ]
        }, 
        "Harry": {
            "tags": [
                "Setting", 
                "Quest", 
                "Hero", 
                "Antagonist", 
                "Ally", 
                "Obstacle"
            ]
        }, 
        "Hilda": {
            "tags": [
                "Setting", 
                "Quest", 
                "Hero", 
                "Antagonist", 
                "Ally", 
                "Obstacle"
            ]
        }, 
        "Isaac": {
            "tags": [
                "Setting", 
                "Quest", 
                "Hero", 
                "Antagonist", 
                "Ally", 
                "Obstacle"
            ]
        }, 
        "Isabelle": {
            "tags": [
                "Setting", 
                "Quest", 
                "Hero", 
                "Antagonist", 
                "Ally", 
                "Obstacle"
            ]
        }, 
        "Jana": {
            "tags": [
                "Setting", 
                "Quest", 
                "Hero", 
                "Antagonist", 
                "Ally", 
                "Obstacle"
            ]
        }, 
        "Jann": {
            "tags": [
                "Setting", 
                "Quest", 
                "Hero", 
                "Antagonist", 
                "Ally", 
                "Obstacle"
            ]
        }, 
        "Jeremy": {
            "tags": [
                "Setting", 
                "Quest", 
                "Hero", 
                "Antagonist", 
                "Ally", 
                "Obstacle"
            ]
        }, 
        "Jill": {
            "tags": [
                "Setting", 
                "Quest", 
                "Hero", 
                "Antagonist", 
                "Ally", 
                "Obstacle"
            ]
        }, 
        "Kaley": {
            "tags": [
                "Setting", 
                "Quest", 
                "Hero", 
                "Antagonist", 
                "Ally", 
                "Obstacle"
            ]
        }, 
        "Kate": {
            "tags": [
                "Setting", 
                "Quest", 
                "Hero", 
                "Antagonist", 
                "Ally", 
                "Obstacle"
            ]
        }, 
        "Kathrine": {
            "tags": [
                "Setting", 
                "Quest", 
                "Hero", 
                "Antagonist", 
                "Ally", 
                "Obstacle"
            ]
        }, 
        "Kattie": {
            "tags": [
                "Setting", 
                "Quest", 
                "Hero", 
                "Antagonist", 
                "Ally", 
                "Obstacle"
            ]
        }, 
        "Kran": {
            "tags": [
                "Setting", 
                "Quest", 
                "Hero", 
                "Antagonist", 
                "Ally", 
                "Obstacle"
            ]
        }, 
        "Kristian": {
            "tags": [
                "Setting", 
                "Quest", 
                "Hero", 
                "Antagonist", 
                "Ally", 
                "Obstacle"
            ]
        }, 
        "Leonida": {
            "tags": [
                "Setting", 
                "Quest", 
                "Hero", 
                "Antagonist", 
                "Ally", 
                "Obstacle"
            ]
        }, 
        "Leroy": {
            "tags": [
                "Setting", 
                "Quest", 
                "Hero", 
                "Antagonist", 
                "Ally", 
                "Obstacle"
            ]
        }, 
        "Lillian": {
            "tags": [
                "Setting", 
                "Quest", 
                "Hero", 
                "Antagonist", 
                "Ally", 
                "Obstacle"
            ]
        }, 
        "Luvenia": {
            "tags": [
                "Setting", 
                "Quest", 
                "Hero", 
                "Antagonist", 
                "Ally", 
                "Obstacle"
            ]
        }, 
        "Marietta": {
            "tags": [
                "Setting", 
                "Quest", 
                "Hero", 
                "Antagonist", 
                "Ally", 
                "Obstacle"
            ]
        }, 
        "Mark": {
            "tags": [
                "Setting", 
                "Quest", 
                "Hero", 
                "Antagonist", 
                "Ally", 
                "Obstacle"
            ]
        }, 
        "Maybell": {
            "tags": [
                "Setting", 
                "Quest", 
                "Hero", 
                "Antagonist", 
                "Ally", 
                "Obstacle"
            ]
        }, 
        "Midge": {
            "tags": [
                "Setting", 
                "Hero", 
                "Antagonist", 
                "Ally", 
                "Obstacle"
            ]
        }, 
        "Montgomery": {
            "tags": [
                "Setting", 
                "Quest", 
                "Hero", 
                "Antagonist", 
                "Ally", 
                "Obstacle"
            ]
        }, 
        "Narissa": {
            "tags": [
                "Setting", 
                "Quest", 
                "Hero", 
                "Antagonist", 
                "Ally", 
                "Obstacle"
            ]
        }, 
        "Ned": {
            "tags": [
                "Setting", 
                "Quest", 
                "Hero", 
                "Antagonist", 
                "Ally", 
                "Obstacle"
            ]
        }, 
        "Onette": {
            "tags": [
                "Setting", 
                "Quest", 
                "Hero", 
                "Antagonist", 
                "Ally", 
                "Obstacle"
            ]
        }, 
        "Oscar": {
            "tags": [
                "Setting", 
                "Quest", 
                "Hero", 
                "Antagonist", 
                "Ally", 
                "Obstacle"
            ]
        }, 
        "Patricia": {
            "tags": [
                "Setting", 
                "Quest", 
                "Hero", 
                "Antagonist", 
                "Ally", 
                "Obstacle"
            ]
        }, 
        "Pierce": {
            "tags": [
                "Setting", 
                "Quest", 
                "Hero", 
                "Antagonist", 
                "Ally", 
                "Obstacle"
            ]
        }, 
        "Queen": {
            "tags": [
                "Setting", 
                "Quest", 
                "Hero", 
                "Antagonist", 
                "Ally", 
                "Obstacle"
            ]
        }, 
        "Quentin": {
            "tags": [
                "Setting", 
                "Quest", 
                "Hero", 
                "Antagonist", 
                "Ally", 
                "Obstacle"
            ]
        }, 
        "Quinn": {
            "tags": [
                "Setting", 
                "Quest", 
                "Hero", 
                "Antagonist", 
                "Ally", 
                "Obstacle"
            ]
        }, 
        "Rafael": {
            "tags": [
                "Setting", 
                "Quest", 
                "Hero", 
                "Antagonist", 
                "Ally", 
                "Obstacle"
            ]
        }, 
        "Randolph": {
            "tags": [
                "Setting", 
                "Quest", 
                "Hero", 
                "Antagonist", 
                "Ally", 
                "Obstacle"
            ]
        }, 
        "Regina": {
            "tags": [
                "Setting", 
                "Quest", 
                "Hero", 
                "Antagonist", 
                "Ally", 
                "Obstacle"
            ]
        }, 
        "Rob": {
            "tags": [
                "Setting", 
                "Quest", 
                "Hero", 
                "Antagonist", 
                "Ally", 
                "Obstacle"
            ]
        }, 
        "Robin": {
            "tags": [
                "Setting", 
                "Quest", 
                "Hero", 
                "Antagonist", 
                "Ally", 
                "Obstacle"
            ]
        }, 
        "Rudolph": {
            "tags": [
                "Setting", 
                "Quest", 
                "Hero", 
                "Antagonist", 
                "Ally", 
                "Obstacle"
            ]
        }, 
        "Samantha": {
            "tags": [
                "Setting", 
                "Quest", 
                "Hero", 
                "Antagonist", 
                "Ally", 
                "Obstacle"
            ]
        }, 
        "Sara": {
            "tags": [
                "Setting", 
                "Quest", 
                "Hero", 
                "Antagonist", 
                "Ally", 
                "Obstacle"
            ]
        }, 
        "Sharon": {
            "tags": [
                "Setting", 
                "Quest", 
                "Hero", 
                "Antagonist", 
                "Ally", 
                "Obstacle"
            ]
        }, 
        "Smith": {
            "tags": [
                "Setting", 
                "Quest", 
                "Hero", 
                "Antagonist", 
                "Ally", 
                "Obstacle"
            ]
        }, 
        "Stephen": {
            "tags": [
                "Setting", 
                "Quest", 
                "Hero", 
                "Antagonist", 
                "Ally", 
                "Obstacle"
            ]
        }, 
        "Steven": {
            "tags": [
                "Setting", 
                "Quest", 
                "Hero", 
                "Antagonist", 
                "Ally", 
                "Obstacle"
            ]
        }, 
        "Tatiana": {
            "tags": [
                "Setting", 
                "Quest", 
                "Hero", 
                "Antagonist", 
                "Ally", 
                "Obstacle"
            ]
        }, 
        "Terry": {
            "tags": [
                "Setting", 
                "Quest", 
                "Hero", 
                "Antagonist", 
                "Ally", 
                "Obstacle"
            ]
        }, 
        "Tiny": {
            "tags": [
                "Setting", 
                "Quest", 
                "Hero", 
                "Antagonist", 
                "Ally", 
                "Obstacle"
            ]
        }, 
        "Tona": {
            "tags": [
                "Setting", 
                "Quest", 
                "Hero", 
                "Antagonist", 
                "Ally", 
                "Obstacle"
            ]
        }, 
        "Torie": {
            "tags": [
                "Setting", 
                "Quest", 
                "Hero", 
                "Antagonist", 
                "Ally", 
                "Obstacle"
            ]
        }, 
        "Ulysses": {
            "tags": [
                "Setting", 
                "Quest", 
                "Hero", 
                "Antagonist", 
                "Ally", 
                "Obstacle"
            ]
        }, 
        "Una": {
            "tags": [
                "Setting", 
                "Quest", 
                "Hero", 
                "Antagonist", 
                "Ally", 
                "Obstacle"
            ]
        }, 
        "Ursula": {
            "tags": [
                "Setting", 
                "Quest", 
                "Hero", 
                "Antagonist", 
                "Ally", 
                "Obstacle"
            ]
        }, 
        "Venetta": {
            "tags": [
                "Setting", 
                "Quest", 
                "Hero", 
                "Antagonist", 
                "Ally", 
                "Obstacle"
            ]
        }, 
        "Vicky": {
            "tags": [
                "Setting", 
                "Quest", 
                "Hero", 
                "Antagonist", 
                "Ally", 
                "Obstacle"
            ]
        }, 
        "Victor": {
            "tags": [
                "Setting", 
                "Quest", 
                "Hero", 
                "Antagonist", 
                "Ally", 
                "Obstacle"
            ]
        }, 
        "Violet": {
            "tags": [
                "Setting", 
                "Quest", 
                "Hero", 
                "Antagonist", 
                "Ally", 
                "Obstacle"
            ]
        }, 
        "Walter": {
            "tags": [
                "Setting", 
                "Quest", 
                "Hero", 
                "Antagonist", 
                "Ally", 
                "Obstacle"
            ]
        }, 
        "Wesley": {
            "tags": [
                "Setting", 
                "Quest", 
                "Hero", 
                "Antagonist", 
                "Ally", 
                "Obstacle"
            ]
        }, 
        "Whitney": {
            "tags": [
                "Setting", 
                "Quest", 
                "Hero", 
                "Antagonist", 
                "Ally", 
                "Obstacle"
            ]
        }, 
        "Xander": {
            "tags": [
                "Setting", 
                "Quest", 
                "Hero", 
                "Antagonist", 
                "Ally", 
                "Obstacle"
            ]
        }, 
        "Xavier": {
            "tags": [
                "Setting", 
                "Quest", 
                "Hero", 
                "Antagonist", 
                "Ally", 
                "Obstacle"
            ]
        }, 
        "Xena": {
            "tags": [
                "Setting", 
                "Quest", 
                "Hero", 
                "Antagonist", 
                "Ally", 
                "Obstacle"
            ]
        }, 
        "Yvonne": {
            "tags": [
                "Setting", 
                "Quest", 
                "Hero", 
                "Antagonist", 
                "Ally", 
                "Obstacle"
            ]
        }, 
        "Zack": {
            "tags": [
                "Setting", 
                "Quest", 
                "Hero", 
                "Antagonist", 
                "Ally", 
                "Obstacle"
            ]
        }, 
        "Zara": {
            "tags": [
                "Setting", 
                "Quest", 
                "Hero", 
                "Antagonist", 
                "Ally", 
                "Obstacle"
            ]
        }, 
        "Zelda": {
            "tags": [
                "Setting", 
                "Quest", 
                "Hero", 
                "Antagonist", 
                "Ally", 
                "Obstacle"
            ]
        }, 
        "Zoe": {
            "tags": [
                "Setting", 
                "Quest", 
                "Hero", 
                "Antagonist", 
                "Ally", 
                "Obstacle"
            ]
        }
    }, 
    "Noun": {
        "ambition": {
            "plural": "ambitions", 
            "tags": [
                "Setting", 
                "Quest", 
                "Abstract"
            ]
        }, 
        "animal": {
            "plural": "animals", 
            "tags": [
                "Quest", 
                "Hero", 
                "Antagonist", 
                "Ally", 
                "Obstacle", 
                "Monster", 
                "Person"
            ]
        }, 
        "apocalypse": {
            "plural": "", 
            "tags": [
                "Setting", 
                "Quest", 
                "Obstacle", 
                "Abstract"
            ]
        }, 
        "arcanist": {
            "plural": "arcanists", 
            "tags": [
                "Quest", 
                "Hero", 
                "Antagonist", 
                "Ally", 
                "Obstacle", 
                "Person"
            ]
        }, 
        "assassin": {
            "plural": "assassins", 
            "tags": [
                "Setting", 
                "Quest", 
                "Hero", 
                "Antagonist", 
                "Ally", 
                "Obstacle", 
                "Person"
            ]
        }, 
        "baron": {
            "plural": "barons", 
            "tags": [
                "Quest", 
                "Hero", 
                "Antagonist", 
                "Ally", 
                "Obstacle", 
                "Person"
            ]
        }, 
        "bear": {
            "plural": "bears", 
            "tags": [
                "Quest", 
                "Ally", 
                "Obstacle", 
                "Monster", 
                "Person"
            ]
        }, 
        "beast": {
            "plural": "beasts", 
            "tags": [
                "Quest", 
                "Hero", 
                "Antagonist", 
                "Ally", 
                "Obstacle", 
                "Monster", 
                "Person"
            ]
        }, 
        "beauty": {
            "plural": "", 
            "tags": [
                "Quest", 
                "Abstract"
            ]
        }, 
        "blade": {
            "plural": "blades", 
            "tags": [
                "Quest", 
                "Hero", 
                "Antagonist", 
                "Ally", 
                "Obstacle", 
                "Object", 
                "Person", 
                "Weapon"
            ]
        }, 
        "bomb": {
            "plural": "bombs", 
            "tags": [
                "Quest", 
                "Ally", 
                "Obstacle", 
                "Object", 
                "Weapon"
            ]
        }, 
        "book": {
            "plural": "books", 
            "tags": [
                "Quest", 
                "Ally", 
                "Obstacle", 
                "Object"
            ]
        }, 
        "bow": {
            "plural": "bows", 
            "tags": [
                "Setting", 
                "Quest", 
                "Ally", 
                "Object", 
                "Weapon"
            ]
        }, 
        "bravery": {
            "plural": "", 
            "tags": [
                "Quest", 
                "Abstract"
            ]
        }, 
        "castle": {
            "plural": "castles", 
            "tags": [
                "Setting", 
                "Quest", 
                "Obstacle", 
                "Place"
            ]
        }, 
        "city": {
            "plural": "cities", 
            "tags": [
                "Setting", 
                "Quest", 
                "Obstacle", 
                "Place"
            ]
        }, 
        "civilisation": {
            "plural": "", 
            "tags": [
                "Setting", 
                "Quest", 
                "Place"
            ]
        }, 
        "claw": {
            "plural": "claws", 
            "tags": [
                "Quest", 
                "Ally", 
                "Obstacle", 
                "Object", 
                "Weapon"
            ]
        }, 
        "companion": {
            "plural": "companions", 
            "tags": [
                "Setting", 
                "Quest", 
                "Antagonist", 
                "Ally", 
                "Obstacle", 
                "Person"
            ]
        }, 
        "confidence": {
            "plural": "", 
            "tags": [
                "Quest", 
                "Abstract"
            ]
        }, 
        "crossbow": {
            "plural": "crossbows", 
            "tags": [
                "Ally", 
                "Obstacle", 
                "Object", 
                "Weapon"
            ]
        }, 
        "daemon": {
            "plural": "daemons", 
            "tags": [
                "Quest", 
                "Hero", 
                "Antagonist", 
                "Ally", 
                "Obstacle", 
                "Monster", 
                "Person"
            ]
        }, 
        "dagger": {
            "plural": "daggers", 
            "tags": [
                "Quest", 
                "Ally", 
                "Obstacle", 
                "Object", 
                "Weapon"
            ]
        }, 
        "dancer": {
            "plural": "dancers", 
            "tags": [
                "Setting", 
                "Quest", 
                "Hero", 
                "Antagonist", 
                "Ally", 
                "Obstacle", 
                "Person"
            ]
        }, 
        "defender": {
            "plural": "defenders", 
            "tags": [
                "Setting", 
                "Quest", 
                "Hero", 
                "Antagonist", 
                "Ally", 
                "Obstacle", 
                "Person"
            ]
        }, 
        "demon": {
            "plural": "demons", 
            "tags": [
                "Quest", 
                "Hero", 
                "Antagonist", 
                "Ally", 
                "Obstacle", 
                "Abstract", 
                "Monster", 
                "Person"
            ]
        }, 
        "dimension": {
            "plural": "dimensions", 
            "tags": [
                "Setting", 
                "Quest", 
                "Abstract", 
                "Place"
            ]
        }, 
        "dog": {
            "plural": "dogs", 
            "tags": [
                "Quest", 
                "Hero", 
                "Antagonist", 
                "Ally", 
                "Obstacle", 
                "Monster", 
                "Person"
            ]
        }, 
        "dragon": {
            "plural": "dragons", 
            "tags": [
                "Quest", 
                "Hero", 
                "Antagonist", 
                "Ally", 
                "Obstacle", 
                "Monster", 
                "Person"
            ]
        }, 
        "elemental": {
            "plural": "elementals", 
            "tags": [
                "Setting", 
                "Quest", 
                "Hero", 
                "Antagonist", 
                "Ally", 
                "Obstacle", 
                "Monster", 
                "Person"
            ]
        }, 
        "enchantment": {
            "plural": "enchantments", 
            "tags": [
                "Hero", 
                "Antagonist", 
                "Ally", 
                "Obstacle", 
                "Abstract"
            ]
        }, 
        "envy": {
            "plural": "", 
            "tags": [
                "Quest", 
                "Abstract"
            ]
        }, 
        "evil": {
            "plural": "", 
            "tags": [
                "Quest", 
                "Obstacle", 
                "Abstract"
            ]
        }, 
        "family": {
            "plural": "families", 
            "tags": [
                "Antagonist", 
                "Ally", 
                "Obstacle", 
                "Person"
            ]
        }, 
        "farmer": {
            "plural": "farmers", 
            "tags": [
                "Setting", 
                "Hero", 
                "Antagonist", 
                "Ally", 
                "Obstacle", 
                "Person"
            ]
        }, 
        "fashionista": {
            "plural": "fashionistas", 
            "tags": [
                "Quest", 
                "Hero", 
                "Antagonist", 
                "Ally", 
                "Obstacle", 
                "Person"
            ]
        }, 
        "fear": {
            "plural": "fears", 
            "tags": [
                "Setting", 
                "Quest", 
                "Antagonist", 
                "Obstacle", 
                "Abstract", 
                "Monster"
            ]
        }, 
        "fighter": {
            "plural": "fighters", 
            "tags": [
                "Quest", 
                "Hero", 
                "Antagonist", 
                "Ally", 
                "Obstacle", 
                "Person"
            ]
        }, 
        "fire": {
            "plural": "fires", 
            "tags": [
                "Setting", 
                "Quest", 
                "Ally", 
                "Obstacle", 
                "Abstract", 
                "Monster", 
                "Weapon"
            ]
        }, 
        "fool": {
            "plural": "fools", 
            "tags": [
                "Setting", 
                "Hero", 
                "Antagonist", 
                "Ally", 
                "Obstacle", 
                "Person"
            ]
        }, 
        "friend": {
            "plural": "friends", 
            "tags": [
                "Hero", 
                "Antagonist", 
                "Ally", 
                "Obstacle", 
                "Person"
            ]
        }, 
        "gargoyle": {
            "plural": "gargoyles", 
            "tags": [
                "Setting", 
                "Quest", 
                "Hero", 
                "Antagonist", 
                "Ally", 
                "Obstacle", 
                "Monster", 
                "Object", 
                "Person"
            ]
        }, 
        "ghost": {
            "plural": "ghosts", 
            "tags": [
                "Setting", 
                "Quest", 
                "Hero", 
                "Antagonist", 
                "Ally", 
                "Obstacle", 
                "Abstract", 
                "Monster", 
                "Person"
            ]
        }, 
        "glass": {
            "plural": "glasses", 
            "tags": [
                "Setting", 
                "Quest", 
                "Ally", 
                "Obstacle", 
                "Object", 
                "Weapon"
            ]
        }, 
        "goblin": {
            "plural": "goblins", 
            "tags": [
                "Setting", 
                "Quest", 
                "Hero", 
                "Antagonist", 
                "Ally", 
                "Obstacle", 
                "Monster", 
                "Person"
            ]
        }, 
        "gun": {
            "plural": "guns", 
            "tags": [
                "Setting", 
                "Quest", 
                "Antagonist", 
                "Ally", 
                "Obstacle", 
                "Object", 
                "Weapon"
            ]
        }, 
        "gunner": {
            "plural": "gunners", 
            "tags": [
                "Setting", 
                "Quest", 
                "Hero", 
                "Antagonist", 
                "Ally", 
                "Obstacle", 
                "Person"
            ]
        }, 
        "hammer": {
            "plural": "hammers", 
            "tags": [
                "Setting", 
                "Quest", 
                "Hero", 
                "Antagonist", 
                "Ally", 
                "Obstacle", 
                "Object", 
                "Weapon"
            ]
        }, 
        "hatred": {
            "plural": "", 
            "tags": [
                "Quest", 
                "Obstacle", 
                "Abstract"
            ]
        }, 
        "hell": {
            "plural": "", 
            "tags": [
                "Setting", 
                "Quest", 
                "Place"
            ]
        }, 
        "hill": {
            "plural": "hills", 
            "tags": [
                "Setting", 
                "Place"
            ]
        }, 
        "honour": {
            "plural": "", 
            "tags": [
                "Quest", 
                "Abstract"
            ]
        }, 
        "hunt": {
            "plural": "hunts", 
            "tags": [
                "Setting", 
                "Quest", 
                "Obstacle", 
                "Abstract"
            ]
        }, 
        "hunter": {
            "plural": "hunters", 
            "tags": [
                "Setting", 
                "Quest", 
                "Hero", 
                "Antagonist", 
                "Ally", 
                "Obstacle", 
                "Person"
            ]
        }, 
        "instrument": {
            "plural": "instruments", 
            "tags": [
                "Quest", 
                "Hero", 
                "Antagonist", 
                "Ally", 
                "Obstacle", 
                "Object", 
                "Person", 
                "Weapon"
            ]
        }, 
        "justice": {
            "plural": "justices", 
            "tags": [
                "Quest", 
                "Hero", 
                "Antagonist", 
                "Ally", 
                "Obstacle", 
                "Abstract", 
                "Person"
            ]
        }, 
        "king": {
            "plural": "kings", 
            "tags": [
                "Quest", 
                "Hero", 
                "Antagonist", 
                "Ally", 
                "Obstacle", 
                "Person"
            ]
        }, 
        "kingdom": {
            "plural": "kingdoms", 
            "tags": [
                "Setting", 
                "Quest", 
                "Place"
            ]
        }, 
        "knife": {
            "plural": "knives", 
            "tags": [
                "Setting", 
                "Quest", 
                "Antagonist", 
                "Ally", 
                "Obstacle", 
                "Object", 
                "Place", 
                "Weapon"
            ]
        }, 
        "knight": {
            "plural": "knights", 
            "tags": [
                "Quest", 
                "Hero", 
                "Antagonist", 
                "Ally", 
                "Obstacle", 
                "Person"
            ]
        }, 
        "lance": {
            "plural": "lances", 
            "tags": [
                "Setting", 
                "Quest", 
                "Hero", 
                "Antagonist", 
                "Ally", 
                "Obstacle", 
                "Object", 
                "Person", 
                "Weapon"
            ]
        }, 
        "love": {
            "plural": "loves", 
            "tags": [
                "Hero", 
                "Antagonist", 
                "Ally", 
                "Obstacle", 
                "Abstract", 
                "Person"
            ]
        }, 
        "lover": {
            "plural": "lovers", 
            "tags": [
                "Quest", 
                "Hero", 
                "Antagonist", 
                "Ally", 
                "Obstacle", 
                "Person"
            ]
        }, 
        "loyalty": {
            "plural": "", 
            "tags": [
                "Quest", 
                "Abstract"
            ]
        }, 
        "mage": {
            "plural": "mages", 
            "tags": [
                "Quest", 
                "Hero", 
                "Antagonist", 
                "Ally", 
                "Obstacle", 
                "Person"
            ]
        }, 
        "magistrate": {
            "plural": "magistrates", 
            "tags": [
                "Quest", 
                "Hero", 
                "Antagonist", 
                "Ally", 
                "Obstacle", 
                "Person"
            ]
        }, 
        "magus": {
            "plural": "magi", 
            "tags": [
                "Quest", 
                "Hero", 
                "Antagonist", 
                "Ally", 
                "Obstacle", 
                "Person"
            ]
        }, 
        "map": {
            "plural": "maps", 
            "tags": [
                "Quest", 
                "Ally", 
                "Object"
            ]
        }, 
        "mercenary": {
            "plural": "mercenaries", 
            "tags": [
                "Setting", 
                "Quest", 
                "Hero", 
                "Ally", 
                "Obstacle", 
                "Person"
            ]
        }, 
        "monster": {
            "plural": "monsters", 
            "tags": [
                "Quest", 
                "Hero", 
                "Antagonist", 
                "Ally", 
                "Obstacle", 
                "Monster", 
                "Person"
            ]
        }, 
        "nebula": {
            "plural": "nebulas", 
            "tags": [
                "Setting", 
                "Quest", 
                "Place"
            ]
        }, 
        "outsider": {
            "plural": "outsiders", 
            "tags": [
                "Quest", 
                "Hero", 
                "Antagonist", 
                "Ally", 
                "Obstacle", 
                "Person"
            ]
        }, 
        "painting": {
            "plural": "paintings", 
            "tags": [
                "Setting", 
                "Quest", 
                "Ally", 
                "Obstacle", 
                "Object"
            ]
        }, 
        "palace": {
            "plural": "palaces", 
            "tags": [
                "Setting", 
                "Quest", 
                "Obstacle", 
                "Place"
            ]
        }, 
        "pilot": {
            "plural": "pilots", 
            "tags": [
                "Setting", 
                "Quest", 
                "Hero", 
                "Antagonist", 
                "Obstacle", 
                "Person"
            ]
        }, 
        "poison": {
            "plural": "poisons", 
            "tags": [
                "Setting", 
                "Quest", 
                "Ally", 
                "Obstacle", 
                "Object", 
                "Weapon"
            ]
        }, 
        "rapier": {
            "plural": "rapiers", 
            "tags": [
                "Quest", 
                "Ally", 
                "Obstacle", 
                "Object", 
                "Weapon"
            ]
        }, 
        "reach": {
            "plural": "", 
            "tags": [
                "Setting", 
                "Place"
            ]
        }, 
        "rest": {
            "plural": "", 
            "tags": [
                "Setting", 
                "Place"
            ]
        }, 
        "rival": {
            "plural": "rivals", 
            "tags": [
                "Quest", 
                "Antagonist", 
                "Ally", 
                "Obstacle", 
                "Person"
            ]
        }, 
        "ruins": {
            "plural": "ruins", 
            "tags": [
                "Setting", 
                "Quest", 
                "Obstacle", 
                "Place"
            ]
        }, 
        "sage": {
            "plural": "sages", 
            "tags": [
                "Quest", 
                "Hero", 
                "Antagonist", 
                "Ally", 
                "Obstacle", 
                "Person"
            ]
        }, 
        "scholar": {
            "plural": "scholars", 
            "tags": [
                "Setting", 
                "Quest", 
                "Hero", 
                "Ally", 
                "Obstacle", 
                "Person"
            ]
        }, 
        "seal": {
            "plural": "seals", 
            "tags": [
                "Setting", 
                "Quest", 
                "Hero", 
                "Antagonist", 
                "Ally", 
                "Obstacle", 
                "Abstract", 
                "Object", 
                "Person"
            ]
        }, 
        "shadow": {
            "plural": "shadows", 
            "tags": [
                "Setting", 
                "Quest", 
                "Hero", 
                "Antagonist", 
                "Ally", 
                "Obstacle", 
                "Abstract", 
                "Monster", 
                "Object", 
                "Person", 
                "Place"
            ]
        }, 
        "ship": {
            "plural": "ships", 
            "tags": [
                "Setting", 
                "Quest", 
                "Ally", 
                "Obstacle", 
                "Place"
            ]
        }, 
        "sorcerer": {
            "plural": "sorcerers", 
            "tags": [
                "Quest", 
                "Hero", 
                "Antagonist", 
                "Ally", 
                "Obstacle", 
                "Monster", 
                "Person"
            ]
        }, 
        "squire": {
            "plural": "squires", 
            "tags": [
                "Setting", 
                "Hero", 
                "Antagonist", 
                "Ally", 
                "Obstacle", 
                "Person"
            ]
        }, 
        "staff": {
            "plural": "staves", 
            "tags": [
                "Quest", 
                "Ally", 
                "Obstacle", 
                "Object", 
                "Weapon"
            ]
        }, 
        "sword": {
            "plural": "swords", 
            "tags": [
                "Quest", 
                "Antagonist", 
                "Ally", 
                "Obstacle", 
                "Object", 
                "Weapon"
            ]
        }, 
        "talent": {
            "plural": "", 
            "tags": [
                "Quest", 
                "Ally", 
                "Obstacle", 
                "Abstract", 
                "Object"
            ]
        }, 
        "teacher": {
            "plural": "teachers", 
            "tags": [
                "Setting", 
                "Hero", 
                "Antagonist", 
                "Ally", 
                "Obstacle", 
                "Person"
            ]
        }, 
        "thief": {
            "plural": "thieves", 
            "tags": [
                "Quest", 
                "Hero", 
                "Antagonist", 
                "Ally", 
                "Obstacle", 
                "Person"
            ]
        }, 
        "town": {
            "plural": "towns", 
            "tags": [
                "Setting", 
                "Quest", 
                "Obstacle", 
                "Place"
            ]
        }, 
        "trophy": {
            "plural": "trophies", 
            "tags": [
                "Quest", 
                "Obstacle", 
                "Abstract", 
                "Object"
            ]
        }, 
        "trust": {
            "plural": "", 
            "tags": [
                "Quest", 
                "Abstract"
            ]
        }, 
        "vehicle": {
            "plural": "vehicles", 
            "tags": [
                "Setting", 
                "Quest", 
                "Ally", 
                "Obstacle", 
                "Object", 
                "Place"
            ]
        }, 
        "wand": {
            "plural": "wands", 
            "tags": [
                "Quest", 
                "Ally", 
                "Obstacle", 
                "Object", 
                "Weapon"
            ]
        }, 
        "warhammer": {
            "plural": "warhammer", 
            "tags": [
                "Quest", 
                "Ally", 
                "Obstacle", 
                "Object", 
                "Weapon"
            ]
        }, 
        "weapon": {
            "plural": "weapons", 
            "tags": [
                "Quest", 
                "Hero", 
                "Antagonist", 
                "Ally", 
                "Obstacle", 
                "Object"
            ]
        }, 
        "wisdom": {
            "plural": "", 
            "tags": [
                "Quest", 
                "Ally", 
                "Abstract"
            ]
        }, 
        "wizard": {
            "plural": "wizards", 
            "tags": [
                "Quest", 
                "Hero", 
                "Antagonist", 
                "Ally", 
                "Obstacle", 
                "Monster", 
                "Person"
            ]
        }, 
        "wolf": {
            "plural": "wolves", 
            "tags": [
                "Setting", 
                "Quest", 
                "Hero", 
                "Antagonist", 
                "Ally", 
                "Obstacle", 
                "Monster", 
                "Person"
            ]
        }, 
        "zombie": {
            "plural": "zombies", 
            "tags": [
                "Quest", 
                "Hero", 
                "Antagonist", 
                "Ally", 
                "Obstacle", 
                "Monster", 
                "Person"
            ]
        }
    }, 
    "Phrases": {
        "Ally": [
            "[Name]'s [Adjective] [Noun]", 
            "The [Adjective], [Adjective] [Noun]", 
            "The [Adjective:Negative] yet [Adjective:Positive] [Noun:Object]", 
            "The [Adjective:Negative] yet [Adjective:Positive] [Noun:Object]", 
            "The [Adjective:Negative] yet [Adjective:Positive] [Noun:Person]"
        ], 
        "Antagonist": [
            "The [Adjective], [Adjective] [^?Noun]", 
            "The [Adjective] [^?Noun] of the [^?Noun+]", 
            "The [Adjective] [^?Noun] of the [^?Noun+]", 
            "The [Adjective] [^?Noun] who needs to [Verb:No Target]", 
            "The [Adjective] [^?Noun] who needs to [Verb:Target] [^?Noun+]", 
            "The [Adjective] [^?Noun] who needs to [Verb:Target] the [^?Noun+?]", 
            "The [Adjective] [^?Noun] who must [Verb:No Target]", 
            "The [Adjective] [^?Noun] who must [Verb:Target] [^?Noun+]", 
            "The [Adjective] [^?Noun] who must [Verb:Target] the [^?Noun+?]", 
            "The [Adjective] [^?Noun] from the [Adjective] [^?Noun:Place]", 
            "The [Adjective] [^?Noun] from [Adjective] [^?Noun:Place]", 
            "The [Adjective] [^?Noun] of the [Adjective] [^?Noun:Place+?]", 
            "The [Adjective] [^?Noun] of [Adjective] [^?Noun:Place+]", 
            "The [Adjective] [^?Noun] of the [Setting]", 
            "The [Adjective] [^?Noun] of the [Setting]", 
            "The [Adjective], [Adjective] [^?Noun] from the [Setting]", 
            "The [Adjective] [Noun:Place]-[Noun]", 
            "[Adjective] [Noun]-[Noun] the [Adjective]", 
            "The [Adjective] [Noun]-[Noun]"
        ], 
        "Hero": [
            "The [Adjective] [^?Noun] of [Name]'s [^?Noun+]", 
            "The [Adjective] [^?Noun] of the [^?Noun+]", 
            "The [Adjective] [^?Noun] of the [^?Noun+]", 
            "The [Adjective] [^?Noun] who needs to [Verb:No Target]", 
            "The [Adjective] [^?Noun] who needs to [Verb:Target] [^?Noun+]", 
            "The [Adjective] [^?Noun] who needs to [Verb:Target] the [^?Noun+?]", 
            "The [Adjective] [^?Noun] who must [Verb:No Target]", 
            "The [Adjective] [^?Noun] who must [Verb:Target] [^?Noun+]", 
            "The [Adjective] [^?Noun] who must [Verb:Target] the [^?Noun+?]", 
            "The [Adjective] [^?Noun] from the [Adjective] [^?Noun:Place]", 
            "The [Adjective] [^?Noun] from [Adjective] [^?Noun:Place]", 
            "[Adjective] [^?Noun] of the [Adjective] [^?Noun:Place+?]", 
            "The [Adjective] [^?Noun] of [Adjective] [^?Noun:Place+]", 
            "The [Adjective] [^?Noun] of the [Adjective] [^?Noun:Place+?]", 
            "The [Adjective] [^?Noun] of the [Setting]", 
            "[Adjective] [^?Noun] of the [Setting]", 
            "The [Adjective], [Adjective] [^?Noun] from the [Setting]", 
            "The [Adjective] [Noun:Place]-[Noun]", 
            "[Adjective] [Noun]-[Noun] the [Adjective]", 
            "The [Adjective] [Noun]-[Noun]"
        ], 
        "Obstacle": [
            "[Name]'s [Adjective] [Noun]", 
            "The [Adjective] [Noun]", 
            "The [Adjective], [Adjective] [Noun]", 
            "The [Adjective:Negative], [Adjective] [Noun:Person]", 
            "The [Adjective] [Noun:Person] and [Adjective] [Noun:Object]", 
            "The [Noun:Person]'s [Adjective:Positive] [Noun:Object]", 
            "The [Noun:Person]'s [Adjective:Negative] [Noun:Object]", 
            "[Name] [Noun:Abstract]'s [Adjective:Negative] [Noun:Object]", 
            "The [Adjective] [Noun:Abstract] that the Hero cannot [Verb:Target]", 
            "The [Adjective] [Noun:Abstract] that cannot [Verb:No Target]"
        ], 
        "Quest": [
            "[Verb:Target] the [Obstacle]", 
            "[Verb:Target] the [Obstacle] of the [Setting]", 
            "[Verb:Target] the [Ally]", 
            "[Verb:Target] the [Ally] of the [Setting]", 
            "[Verb:Target] the [Antagonist]", 
            "[Verb:Target] the [Antagonist] of the [Setting]", 
            "[Verb:Target] the [Setting]", 
            "Don't [Verb:No Target], and [Verb:Target] the [Ally]", 
            "[Verb:No Target], and [Verb:Target] the [Ally]", 
            "Don't [Verb:No Target], and [Verb:Target] the [Obstacle]", 
            "[Verb:No Target], and [Verb:Target] the [Obstacle]", 
            "[Verb:Target] [Name]'s [Adjective] [Noun:Object]", 
            "[Verb:Target] the [Adjective], [Adjective] [Noun:Object]", 
            "[Verb:Target] the [Adjective], [Adjective:Negative] [Noun:Place]"
        ], 
        "Setting": [
            "[Name]'s [Adjective] [Noun:Place]", 
            "The [Adjective] [Noun:Place]", 
            "The [Adjective] [Noun:Place] of [Name]", 
            "The [Adjective:Negative] [Noun:Place] that was once [Adjective:Positive]", 
            "The [Adjective] [Noun:Abstract] [Noun:Place]", 
            "The [Noun:Abstract] [Noun:Place] of the [Adjective] [Noun]", 
            "The [Adjective] [Noun:Place] where [Noun+] [Verb:No Target]", 
            "The [Adjective], [Adjective] [Noun:Place]"
        ], 
        "Syntax": [
            "[Type] enclosed in square brackets", 
            "[Type:Tag] for a specifically tagged type.", 
            "[Type+] (or [Type+:Tag]) for enforcing a plural", 
            "[^Type] (or [^Type:Tag]) for enforcing a title style", 
            "Add ? after for a random chance to use style or not.", 
            "eg. [^?Type] or [Type+?]."
        ], 
        "Title": [
            "[Name] [Name]", 
            "[Name] [Name] of the [Setting]", 
            "[Name] [Name] of the [Adjective] [Setting]", 
            "[Adjective] [Name]", 
            "[Name] [Name]-[Name]", 
            "[Name] the [^Noun]", 
            "[Name] [Name]", 
            "[^Noun] [Name]", 
            "[Name] of the [Noun+]", 
            "[^Noun] [Name] the [^Adjective]"
        ]
    }, 
    "Verb": {
        "appear": {
            "Participle": "appearing", 
            "Past": "appeared", 
            "Present": "appears", 
            "tags": [
                "Setting", 
                "Quest", 
                "Hero", 
                "Antagonist", 
                "Ally", 
                "Obstacle", 
                "No Target"
            ]
        }, 
        "assault": {
            "Participle": "assaulting", 
            "Past": "assaulted", 
            "Present": "assaults", 
            "tags": [
                "Setting", 
                "Quest", 
                "Hero", 
                "Antagonist", 
                "Ally", 
                "Obstacle", 
                "Target"
            ]
        }, 
        "attack": {
            "Participle": "attacking", 
            "Past": "attacked", 
            "Present": "attacks", 
            "tags": [
                "Setting", 
                "Quest", 
                "Hero", 
                "Antagonist", 
                "Ally", 
                "Obstacle", 
                "Target"
            ]
        }, 
        "bless": {
            "Participle": "blessing", 
            "Past": "blessed", 
            "Present": "blesses", 
            "tags": [
                "Setting", 
                "Quest", 
                "Hero", 
                "Antagonist", 
                "Ally", 
                "Obstacle", 
                "Target"
            ]
        }, 
        "collapse": {
            "Participle": "collapsing", 
            "Past": "collapsed", 
            "Present": "collapses", 
            "tags": [
                "Quest", 
                "Hero", 
                "Antagonist", 
                "Ally", 
                "Obstacle", 
                "No Target"
            ]
        }, 
        "control": {
            "Participle": "controlling", 
            "Past": "controlled", 
            "Present": "controls", 
            "tags": [
                "Quest", 
                "Hero", 
                "Antagonist", 
                "Ally", 
                "Obstacle", 
                "Target"
            ]
        }, 
        "convert": {
            "Participle": "converting", 
            "Past": "converted", 
            "Present": "converts", 
            "tags": [
                "Quest", 
                "Hero", 
                "Antagonist", 
                "Ally", 
                "Obstacle", 
                "Target"
            ]
        }, 
        "corrupt": {
            "Participle": "corrupting", 
            "Past": "corrupted", 
            "Present": "corrupts", 
            "tags": [
                "Setting", 
                "Quest", 
                "Hero", 
                "Antagonist", 
                "Ally", 
                "Obstacle", 
                "Target"
            ]
        }, 
        "create": {
            "Participle": "creating", 
            "Past": "created", 
            "Present": "creates", 
            "tags": [
                "Setting", 
                "Quest", 
                "Hero", 
                "Antagonist", 
                "Ally", 
                "Obstacle", 
                "Target"
            ]
        }, 
        "damage": {
            "Participle": "damaging", 
            "Past": "damaged", 
            "Present": "damages", 
            "tags": [
                "Setting", 
                "Quest", 
                "Hero", 
                "Antagonist", 
                "Ally", 
                "Obstacle", 
                "Target"
            ]
        }, 
        "deceive": {
            "Participle": "deceiving", 
            "Past": "deceived", 
            "Present": "deceives", 
            "tags": [
                "Setting", 
                "Quest", 
                "Hero", 
                "Antagonist", 
                "Ally", 
                "Obstacle", 
                "No Target", 
                "Target"
            ]
        }, 
        "defeat": {
            "Participle": "defeating", 
            "Past": "defeated", 
            "Present": "defeats", 
            "tags": [
                "Setting", 
                "Quest", 
                "Hero", 
                "Antagonist", 
                "Ally", 
                "Obstacle", 
                "Target"
            ]
        }, 
        "deliver": {
            "Participle": "delivering", 
            "Past": "delivered", 
            "Present": "delivers", 
            "tags": [
                "Setting", 
                "Quest", 
                "Hero", 
                "Antagonist", 
                "Ally", 
                "Obstacle", 
                "Target"
            ]
        }, 
        "destroy": {
            "Participle": "destroying", 
            "Past": "destroyed", 
            "Present": "destroys", 
            "tags": [
                "Setting", 
                "Quest", 
                "Hero", 
                "Antagonist", 
                "Ally", 
                "Obstacle", 
                "Target"
            ]
        }, 
        "die": {
            "Participle": "dieing", 
            "Past": "died", 
            "Present": "dies", 
            "tags": [
                "Setting", 
                "Quest", 
                "Hero", 
                "Antagonist", 
                "Ally", 
                "Obstacle", 
                "No Target"
            ]
        }, 
        "discover": {
            "Participle": "discovering", 
            "Past": "discovered", 
            "Present": "discovers", 
            "tags": [
                "Setting", 
                "Quest", 
                "Hero", 
                "Antagonist", 
                "Ally", 
                "Obstacle", 
                "Target"
            ]
        }, 
        "fall": {
            "Participle": "falling", 
            "Past": "fell", 
            "Present": "falls", 
            "tags": [
                "Setting", 
                "Quest", 
                "Hero", 
                "Antagonist", 
                "Ally", 
                "Obstacle", 
                "No Target"
            ]
        }, 
        "grow": {
            "Participle": "growing", 
            "Past": "grew", 
            "Present": "grows", 
            "tags": [
                "Setting", 
                "Quest", 
                "Hero", 
                "Antagonist", 
                "Ally", 
                "Obstacle", 
                "No Target"
            ]
        }, 
        "happen": {
            "Participle": "happening", 
            "Past": "happened", 
            "Present": "happens", 
            "tags": [
                "Setting", 
                "No Target"
            ]
        }, 
        "heal": {
            "Participle": "healing", 
            "Past": "healed", 
            "Present": "heals", 
            "tags": [
                "Setting", 
                "Quest", 
                "Hero", 
                "Antagonist", 
                "Ally", 
                "Obstacle", 
                "Target"
            ]
        }, 
        "hunt": {
            "Participle": "hunting", 
            "Past": "hunted", 
            "Present": "hunts", 
            "tags": [
                "Setting", 
                "Quest", 
                "Hero", 
                "Antagonist", 
                "Ally", 
                "Obstacle", 
                "No Target", 
                "Target"
            ]
        }, 
        "impede": {
            "Participle": "impeding", 
            "Past": "impeded", 
            "Present": "impedes", 
            "tags": [
                "Setting", 
                "Quest", 
                "Hero", 
                "Antagonist", 
                "Ally", 
                "Obstacle", 
                "Target"
            ]
        }, 
        "investigate": {
            "Participle": "investigating", 
            "Past": "investigated", 
            "Present": "investigates", 
            "tags": [
                "Setting", 
                "Quest", 
                "Hero", 
                "Antagonist", 
                "Ally", 
                "Obstacle", 
                "Target"
            ]
        }, 
        "kill": {
            "Participle": "killing", 
            "Past": "killed", 
            "Present": "kills", 
            "tags": [
                "Setting", 
                "Quest", 
                "Hero", 
                "Antagonist", 
                "Ally", 
                "Obstacle", 
                "Target"
            ]
        }, 
        "lie": {
            "Participle": "lieing", 
            "Past": "lied", 
            "Present": "lies", 
            "tags": [
                "Setting", 
                "Quest", 
                "Hero", 
                "Antagonist", 
                "Ally", 
                "Obstacle", 
                "No Target"
            ]
        }, 
        "live": {
            "Participle": "living", 
            "Past": "lived", 
            "Present": "lives", 
            "tags": [
                "Setting", 
                "Quest", 
                "Hero", 
                "Antagonist", 
                "Ally", 
                "Obstacle", 
                "No Target"
            ]
        }, 
        "map": {
            "Participle": "mapping", 
            "Past": "mapped", 
            "Present": "maps", 
            "tags": [
                "Setting", 
                "Quest", 
                "Hero", 
                "Antagonist", 
                "Ally", 
                "Obstacle", 
                "Target"
            ]
        }, 
        "move": {
            "Participle": "moving", 
            "Past": "moved", 
            "Present": "moves", 
            "tags": [
                "Setting", 
                "Quest", 
                "Hero", 
                "Antagonist", 
                "Ally", 
                "Obstacle", 
                "No Target"
            ]
        }, 
        "obtain": {
            "Participle": "obtaining", 
            "Past": "obtained", 
            "Present": "obtains", 
            "tags": [
                "Setting", 
                "Quest", 
                "Hero", 
                "Antagonist", 
                "Ally", 
                "Obstacle", 
                "Target"
            ]
        }, 
        "poison": {
            "Participle": "poisoning", 
            "Past": "poisoned", 
            "Present": "poisons", 
            "tags": [
                "Setting", 
                "Quest", 
                "Hero", 
                "Antagonist", 
                "Ally", 
                "Obstacle", 
                "Target"
            ]
        }, 
        "protect": {
            "Participle": "protecting", 
            "Past": "protected", 
            "Present": "protects", 
            "tags": [
                "Setting", 
                "Quest", 
                "Hero", 
                "Antagonist", 
                "Ally", 
                "Obstacle", 
                "Target"
            ]
        }, 
        "quest": {
            "Participle": "questing", 
            "Past": "quested", 
            "Present": "quests", 
            "tags": [
                "Setting", 
                "Quest", 
                "Hero", 
                "Antagonist", 
                "Ally", 
                "Obstacle", 
                "No Target"
            ]
        }, 
        "reach": {
            "Participle": "reaching", 
            "Past": "reached", 
            "Present": "reaches", 
            "tags": [
                "Setting", 
                "Quest", 
                "Hero", 
                "Antagonist", 
                "Ally", 
                "Obstacle", 
                "Target"
            ]
        }, 
        "resist": {
            "Participle": "resisting", 
            "Past": "resisted", 
            "Present": "resists", 
            "tags": [
                "Setting", 
                "Quest", 
                "Hero", 
                "Antagonist", 
                "Ally", 
                "Obstacle", 
                "Target"
            ]
        }, 
        "rise": {
            "Participle": "riseing", 
            "Past": "rose", 
            "Present": "rises", 
            "tags": [
                "Setting", 
                "Quest", 
                "Hero", 
                "Antagonist", 
                "Ally", 
                "Obstacle", 
                "No Target"
            ]
        }, 
        "rival": {
            "Participle": "rivalling", 
            "Past": "rivalled", 
            "Present": "rivals", 
            "tags": [
                "Setting", 
                "Quest", 
                "Hero", 
                "Antagonist", 
                "Ally", 
                "Obstacle", 
                "Target"
            ]
        }, 
        "seal": {
            "Participle": "sealing", 
            "Past": "sealed", 
            "Present": "seals", 
            "tags": [
                "Setting", 
                "Quest", 
                "Hero", 
                "Antagonist", 
                "Ally", 
                "Obstacle", 
                "Target"
            ]
        }, 
        "soothe": {
            "Participle": "soothing", 
            "Past": "soothed", 
            "Present": "soothes", 
            "tags": [
                "Setting", 
                "Quest", 
                "Hero", 
                "Antagonist", 
                "Ally", 
                "Obstacle", 
                "No Target", 
                "Target"
            ]
        }, 
        "stop": {
            "Participle": "stopping", 
            "Past": "stopped", 
            "Present": "stops", 
            "tags": [
                "Setting", 
                "Quest", 
                "Hero", 
                "Antagonist", 
                "Ally", 
                "Obstacle", 
                "Target"
            ]
        }, 
        "survive": {
            "Participle": "surviving", 
            "Past": "survived", 
            "Present": "survives", 
            "tags": [
                "Quest", 
                "Hero", 
                "Antagonist", 
                "Ally", 
                "Obstacle", 
                "No Target"
            ]
        }, 
        "train": {
            "Participle": "training", 
            "Past": "trained", 
            "Present": "trains", 
            "tags": [
                "Quest", 
                "Hero", 
                "Antagonist", 
                "Ally", 
                "Obstacle", 
                "No Target", 
                "Target"
            ]
        }, 
        "trick": {
            "Participle": "tricking", 
            "Past": "tricked", 
            "Present": "tricks", 
            "tags": [
                "Quest", 
                "Hero", 
                "Antagonist", 
                "Ally", 
                "Obstacle", 
                "No Target", 
                "Target"
            ]
        }, 
        "wait": {
            "Participle": "waiting", 
            "Past": "waited", 
            "Present": "waits", 
            "tags": [
                "Setting", 
                "Quest", 
                "Hero", 
                "Antagonist", 
                "Ally", 
                "Obstacle", 
                "No Target"
            ]
        }, 
        "work": {
            "Participle": "working", 
            "Past": "worked", 
            "Present": "works", 
            "tags": [
                "Setting", 
                "Quest", 
                "Hero", 
                "Antagonist", 
                "Ally", 
                "Obstacle", 
                "No Target"
            ]
        }
    }
}